<?xml version="1.0" encoding="UTF-8"?>

<metadata xmlns:xsi="http://www.w3.org/2001/XMLSchema-instance" 
    xmlns:dc="http://purl.org/dc/elements/1.1/">
    <dc:title>Correlation between LA Crimes and Museum Visitors</dc:title>
    <dc:creator>Hasan Alkhatib (https://orcid.org/0000-0002-1223-9620)</dc:creator>
    <dc:subject>Correlation Experiment, LA City, LA Crimes, Los Angeles, Data Science, Crimes and Museums, Data Experiment, Data Correlation</dc:subject>
    <dc:description>
        Java implementation that looks into the relation between the number of art/museum fans and the number of crimes in LA, US between 2014 and 2018
    </dc:description>
    <dc:date>14.04.2019</dc:date>
    <dc:type>DataGeneration</dc:type>
    <dc:format>CSV</dc:format>
    <dc:source>Crime Data from 2010 to Present: Los Angeles Police Department (https://data.lacity.org/A-Safe-City/Crime-Data-from-2010-to-Present/y8tr-7khq)</dc:source>
    <dc:source>Los Angeles Museum Visitors: City of Los Angeles</dc:source>
    <dc:language>English</dc:language>
    <dc:coverage>2014 - 2018</dc:coverage>
    <dc:rights>Creative Commons Attribution 4.0 International</dc:rights>
    <dc:replaces>https://hasanalkhatib@bitbucket.org/hasanalkhatib/laexperiment_data.git</dc:replaces>
</metadata>